Unsupervised Learning Notebook
…
Okay now lets find some interesting patterns in the data:

teen_clusters$centers %>%
  as_tibble() %>%
  add_rownames(var ="cluster") %>%
  pivot_longer(cols=-cluster) %>%
  group_by(cluster) %>% 
  filter(value > 0)

## # A tibble: 111 x 3
## # Groups:   cluster [4]
##    cluster name          value
##    <chr>   <chr>         <dbl>
##  1 1       basketball   0.160 
##  2 1       football     0.236 
##  3 1       soccer       0.104 
##  4 1       softball     0.0723
##  5 1       volleyball   0.189 
##  6 1       swimming     0.240 
##  7 1       cheerleading 0.393 
##  8 1       baseball     0.0299
##  9 1       tennis       0.135 
## 10 1       sports       0.103 
## # ... with 101 more rows
…
